{
    "LocalEnvironmentVariable": "BLOGMOTOR",
    "LocalEnvironmentValue": "LOCAL",
    "DevelopmentEnvironmentVariable": "BLOGMOTORDEV",
    "DevelopmentEnvironmentValue": "DEVELOPMENT",
    "ProductionEnvironmentVariable": "BLOGMOTORPROD", 
    "ProductionEnvironmentValue": "PRODUCTION"
}